Algorithmic Decision Making & Census Data
…
Note: output = "wide" gives you one row per place, multiple columns for variables

Data Cleaning Essentials

Clean up messy geographic names:

# A tibble: 67 × 2
   NAME                           county_name
   <chr>                          <chr>      
 1 Adams County, Pennsylvania     Adams      
 2 Allegheny County, Pennsylvania Allegheny  
 3 Armstrong County, Pennsylvania Armstrong  
 4 Beaver County, Pennsylvania    Beaver     
 5 Bedford County, Pennsylvania   Bedford    
 6 Berks County, Pennsylvania     Berks      
 7 Blair County, Pennsylvania     Blair      
 8 Bradford County, Pennsylvania  Bradford   
 9 Bucks County, Pennsylvania     Bucks      
10 Butler County, Pennsylvania    Butler     
# ℹ 57 more rows
…
